C:\Eclipse Oxygen\Nueva carpeta\automatizacion1\src\test\java\com\choucair\zimbra\automatizacion1\RunnerFeatures.java
C:\Eclipse Oxygen\Nueva carpeta\automatizacion1\src\test\java\com\choucair\zimbra\automatizacion1\steps\LoginStep.java
C:\Eclipse Oxygen\Nueva carpeta\automatizacion1\src\test\java\com\choucair\zimbra\automatizacion1\definitions\MenuDefinition.java
C:\Eclipse Oxygen\Nueva carpeta\automatizacion1\src\test\java\com\choucair\zimbra\automatizacion1\pageobjects\MenuPageObject.java
C:\Eclipse Oxygen\Nueva carpeta\automatizacion1\src\test\java\com\choucair\zimbra\automatizacion1\steps\MenuStep.java
C:\Eclipse Oxygen\Nueva carpeta\automatizacion1\src\test\java\com\choucair\zimbra\automatizacion1\AppTest.java
C:\Eclipse Oxygen\Nueva carpeta\automatizacion1\src\test\java\com\choucair\zimbra\automatizacion1\definitions\MensajeDefinition.java
C:\Eclipse Oxygen\Nueva carpeta\automatizacion1\src\test\java\com\choucair\zimbra\automatizacion1\pageobjects\MensajePageObject.java
C:\Eclipse Oxygen\Nueva carpeta\automatizacion1\src\test\java\com\choucair\zimbra\automatizacion1\definitions\LoginDefinition.java
C:\Eclipse Oxygen\Nueva carpeta\automatizacion1\src\test\java\com\choucair\zimbra\automatizacion1\pageobjects\LoginPageObject.java
C:\Eclipse Oxygen\Nueva carpeta\automatizacion1\src\test\java\com\choucair\zimbra\automatizacion1\steps\MensajeStep.java
